//MODELS AND MATERIALS MADE BY II_PYRO_II\\
//DO NOT REUPLOAD ANYWHERE\\
//MADE FOR AHSHOP2 - MOONSHINE ADDON\\

"VertexlitGeneric"
{
	"$basetexture" "models/stand/stand_diffuse"
	"$bumpmap" "models/stand/stand_normal"
	"$surfaceprop" "Wood"

	"$phong" "1"
	"$phongboost" "0.2"
	"$phongexponent" "0.5"
	"$phongtint" "[0 0 0]"
	"$phongalbedotint" "1"
	"$phongfresnelranges" "[.1 .1 .1]"

$detail detail\wood_detail_01
$detailscale 5
$detailblendfactor .8
$detailblendmode 0

}
