//re-textured by II_PYRO_II

"VertexlitGeneric"
{
	"$basetexture" "models/props_junk/plasticbottle"
	"$bumpmap" "models/props_junk/plasticbottle_normal"
	"$surfaceprop" "Default"

	"$phong" "1"
	"$phongboost" "2.5"
	"$phongexponent" "5"
	"$phongtint" "[ .3 .3 .3 ]"
	"$phongalbedotint" "1"
	"$phongfresnelranges" "[ .3 .3 .3 ]"
}
