//re-textured by II_PYRO_II

"VertexLitGeneric"
{
	"$basetexture" "Models/props_c17/Oil_Drum001a"
	"$surfaceprop" "metal"
	"$bumpmap" "Models/props_c17/Oil_Drum001a_normal"

	"$phong" "1"
	"$phongboost" "2.5"
	"$phongexponent" "5"
	"$phongtint" "[ .3 .3 .3 ]"
	"$phongalbedotint" "1"
	"$phongfresnelranges" "[ .3 .3 .3 ]"

}
