//MODELS AND MATERIALS MADE BY II_PYRO_II\\
//http://steamcommunity.com/id/saifahmed3d\\
//DO NOT REUPLOAD ANYWHERE\\
//MADE FOR AHSHOP\\

"VertexlitGeneric"
{
	"$basetexture" "models/wheat_box/diffuse_box"
	"$bumpmap" "models/wheat_box/normal_box"
	"$surfaceprop" "Default"

	"$detail" "models/wheat_box/specular_box"
	"$detailscale" "1"
	"$detailblendfactor" "1"
	"$detailblendmode" "0"

	"$phong" "1"
	"$phongboost" "5"
	"$phongexponent" "10"
	"$phongtint" "[ .3 .3 .3 ]"
	"$phongalbedotint" "1"
	"$phongfresnelranges" "[ .3 .3 .3 ]"


}
